Name,ExternalDataReference,StartDate,EndDate,"Race: Select one or more choices indicating your race.-<span style=""font-size:16px;""><span style=""font-family:times new roman,times,serif;"">White</span></span>","Race: Select one or more choices indicating your race.-<span style=""font-size:16px;""><span style=""font-family:times new roman,times,serif;"">Black or African-American</span></span>","Race: Select one or more choices indicating your race.-<span style=""font-size:16px;""><span style=""font-family:times new roman,times,serif;"">Hispanic</span></span>","Race: Select one or more choices indicating your race.-<span style=""font-size:16px;""><span style=""font-family:times new roman,times,serif;"">Asian</span></span>","Race: Select one or more choices indicating your race.-<span style=""font-size:16px;""><span style=""font-family:times new roman,times,serif;"">American Indian or Alaskan Native</span></span>","Race: Select one or more choices indicating your race.-<span style=""font-size:16px;""><span style=""font-family:times new roman,times,serif;"">International</span></span>","Race: Select one or more choices indicating your race.-<span style=""font-size:16px;""><span style=""font-family:times new roman,times,serif;"">Native Hawaiian or Other Pacific Islander</span></span>","Race: Select one or more choices indicating your race.-<span style=""font-size:16px;""><span style=""font-family:times new roman,times,serif;"">Unknown</span></span>","Prior to this course, I have used other 3-D computer programs or games",I am comfortable using technology.,Second Life familiarity and use at the start,I felt that if I tried hard I would be successful using Second Life,I thought I would do as well as or better than other students on SL teaching ,I am confident that I have the ability to learn teaching strategies in SL, I felt I had enough time to complete the exercise?,I found the exercise useful in helping me to learn more about the middle grade student avatar?,I appreciate having multiple opportunities to practice in SL,Was there something you thought was good about the Get to Know Your Student,Was there anything that you would do to improve the Get to Know Your Student exercise, I felt I had enough time to complete the exercise?,I found the exercise useful in allowing me to work one-on-one with the middle grade student avatar to develop my tutoring/teaching skills?,How did you feel about tutoring the middle grade student?,Please comment on your response in the above question.,Did the actual tutoring session meet your expectations/plans,d. Please briefly explain your above answer,Was there something you thought was good about the one on one Tutoring,Would you change anything in the one on one Tutoring
"Button, Courtney",AE1001,21-02-2013 17:01,21-02-2013 17:08,1,,,,,,,,3,3,4,6,4,6,10,9,10,I felt that the process as a whole was useful simply for the fact that it allowed me to have practice in using second life. Today was our first tutoring session and I still had a few struggles. I can't imagine how much harder it might have been if we had not had the opportunity to practive previously.,I wish that I would have known more about what we were to dicuss that day.,5,6,3,Math is not my strongest subject so I find it a little difficult. I do appreciate that we were given the problem ahead of time to become familiar with. That helped me a lot!,6,It actually went better than I thought it would! Once I got started it seemed easier. I still felt slightly intimidated at times because the avatar students were graduate students.,I liked that we had time to practice it before and to watch an example video.,Maybe if we were given a little more time it would be helpful.
"Crutcher, Jennifer",AE1002,21-02-2013 13:49,21-02-2013 17:05,1,,,,,,,,3,10,1,8,10,7,7,5,10,I guess just knowing a little about them so the conversation was not so awkward and if they were having problems we could relate back to their life which is similar to what we will do with our real students.,I cant think of anything.,7,7,5,Since they are not real middle grade students sometimes it just makes it awkward and sometimes I feel that doing this without second life would be more beneficial. ,8,"I would not say they are the best, but I knew what was going to happen so I knew my expectations. ",Just to see how we react under pressure.,No. For what is going on it is fine.
"Davis, Allie",AE1003,21-02-2013 17:01,21-02-2013 17:04,1,,,,,,,,5,10,1,5,5,5,3,6,10,,,3,8,5,"I like being with students face to face, it is easier to explain things and to be able to actually look the student in the face.",5,I did not know what to really expect.,I thought it was beneficial to be able to tutor the student.,To make it longer.
"Davis, Brittany",AE1004,21-02-2013 17:08,21-02-2013 17:14,1,,,,,,,,1,9,1,7,4,4,4,9,1,,,1,7,1,I felt embarrassed and flustered when I was giving the tutoring session. I went blank on a lot of the questions the student gave me. ,6,"I did like how we got the chance to practice tutoring a middle school child, but it was hard since we weren't face to face and I couldn't see them work out the problem.",I thought this exercise gave me a good view of how it might be like in real life when I am a teacher. It made me familiar with students language and diction habits.,"I would definitely want more time to prepare for the tutoring session, since I only just looked at how the student worked the problem and since I felt flustered, it made me nervous as to what I was supposed to say. "
"Echols, Sean",AE1005,21-02-2013 17:02,21-02-2013 17:09,1,,,,,,,,1,6,2,9,5,3,4,7,7,I was happy to get to know different types of personalities and backgrounds. ,I would have liked more time to understand all the different aspects of second-life.,9,7,4,I have never previously used second life which made it difficult to feel too comfortable.,7,It was a huge help and feel much more prepared for my teaching career now.,"The ""student"" was able to test me in ways a normal student would possibly not. Almost like giving the tutor a worst case scenario to work with.",Again more time to understand second life.
"Flores, Caitlin",AE1006,21-02-2013 17:02,21-02-2013 17:07,,,1,,,,,,4,5,2,10,10,7,8,9,10,"Yes, it gave us a hands on feel for the program and how to use it. It let us talk to the ""students"" and get a feel for their strengths and weaknesses and their learning style, as well as things that interest them to help relate math problems to. ",No.,9,8,8,"It was a little uncomfortable, because I prefer to be face to face with the student so I can see their work and make sure I am understanding what they are saying, or that they are articulating correctly their math processes and steps. It went a lot smoother than I expected though and think it will be helpful. ",9,It exceeded them. I thought it was going to be a lot more difficult to successfully communicate about the students work via the computer and headset. ,"Yes, it helps give us experience with working with a middle school student. ","No, I liked that the student had their work on the board by the table, so I could visually see what he was saying. "
"Gibbs, Michelle",AE1007,21-02-2013 17:06,21-02-2013 17:09,,,1,,,,,,1,9,1,3,3,6,2,2,5,I got to know the student I worked with and it was helpful to be able to relate things to what i knew about him.,N/A,3,4,8,,5,I didn't really know what to expect.,n/a,n/a
"Golden, Taylor",AE1008,21-02-2013 17:07,21-02-2013 17:14,,1,,,,,,,3,7,2,5,8,7,7,8,8,,,8,8,6,I like the second life environment and being able to talk as if face to face.,7,I expected the tutoring exercise to be a good learning experience and help me practice using language moves and other strategies to help students.,The tutoring exercise allows for a training ground for interactions with students in the field.,n/a
"Gray, Emily",AE1009,21-02-2013 17:01,21-02-2013 17:06,1,,,,,,,,1,8,1,8,8,5,4,4,6,"It was helpful to ""get to know"" the students before teaching them.",I did not have enough time to meet the student or teach them their question today. It was hard for me to understand my student ,3,4,5,I did not feel comfortable teaching the student because I did not like the technology usage. It would help me to do the tutoring in real life,5,I did not know what to expect when I did the tutoring and did not really feel the virtual tutoring helped. It would help me to be able to do the tutoring face to face where I can actually look at the problem with the student.,It was helpful to talk out the problem,I would have preferred to do it in person where I could visually see the problem and student
"Howard, Chelsea",AE1010,21-02-2013 17:06,21-02-2013 17:12,1,,,,,,,,2,6,1,7,5,8,4,7,10,I thought it was nice to have a chance prior to any assignments to use the program to talk to the students. I liked being able to apeak about the students interests in school and other hobbies before as well.,"I think it would be better to go over some topics that you should be talking about with the student. I know at first I was nervoud and didn't know what to say to the student so there was some awkward silences, but that may have also been due to the fact that it was the first time I had done anything in second life.",1,7,6,"I felt comfortable trying to explain, but it is hard for me because I liked to visually write down things to show to the student to help explain what I am saying and i can't do that in second life. I had to try to get across what I was saying just by speaking",4,"I expected to be able to explain my thoughts a little better, but I think I just was nervous about the assignment so I didn't explain things as well as I could have. I also wish I would have had more time to explain things to the student",I think it was good practice on making sure I am getting across to my students by the way I explain things,I would just change the time limit and maybe find a way to be able to write things down and show the student when trying to explain things.
"Labus, Haley",AE1011,21-02-2013 17:06,21-02-2013 17:09,1,,,,,,,,2,8,1,6,3,7,4,7,6,I learned how to talk to students and how to get to know them as an educator.,,5,7,6,It was difficult not being able to write and show them what I was talking about. Having to explain everything without being able to write anything out was difficult for me.,6,,It helped me to explain a problem in order for them to understand.,I would not change anything in the one on one exercise.
"Lopez, Mayra",AE1012,21-02-2013 17:00,21-02-2013 17:11,,,1,,,,,,1,2,1,9,7,7,5,7,10,I thought it was great that we got students from different backgrounds because it allows you to see different situations that may occur.,"I would improve the time, well for me personally I did not have enough time to meet all the students but otherwise it was a good experience.",3,8,7,I liked the experience I had and I thought it was really close to what a middle schooler would respond and the questions they would have but I did feel as I personally did not have enough time.,4,It did meet my expectations just not my plans I did not think I would take that long to explain or get to the point.,It prepared me for future tutoring and teaching situations and gave me a good experience of how it would be to teach middle school.,Personally for me the time I started a little bit late and I guess I am just slower in tutoring or it took me longer than expected that is all.
"Martinez, Meredith",AE1013,21-02-2013 16:59,21-02-2013 17:06,1,,,,,,,,3,6,4,2,5,8,3,5,6,I like being able to hear real students and able to connect with them .,no,3,6,7,,5,There was not a lotof instruction on what to expect from the program . I wish there were more guidelines for the lesson.,It was nice to go through the problem an they could respond appropriate. ,I wish there was a little more time to go through the problem. 
"Mc Millen, Taryn",AE1014,21-02-2013 16:59,21-02-2013 17:07,1,,,,,,,,2,9,2,9,9,9,10,10,10,This exercise allowed me to get to know the students on a personal level. It also allowed the students to ask me any questions they had about any mathematical concepts. ,,8,9,8,"Going into the tutoring session, I was nervous. However, once TingTing and I began talking about the problem, the conversations flowed easily.",9,The tutoring session actually went better than I expected.,I tried to go over how I would tutor a student prior to this exercise by writing down what how I would respond to my student. Talking with a student in this exercise was so much easier than trying to write out my responses. ,"I just wish I had more time to go in depth with my student. TingTing and I were almost finished solving the problem the correct way, but I felt like I was leaving her hanging without closure on the problem."
"Nance, Sarah",AE1015,21-02-2013 17:00,21-02-2013 17:09,1,,,,,,,,4,7,2,8,6,6,8,4,8,Getting use to second life in general and being able to meet the student I was tutoring was helpfu. ,,9,7,8,"I think I would have liked more opprotunites to learn about how to tutor students. I think the ""Language Moves"" lecture was good, but it came on the day that we started tutoring, so it wasn't as helpful. I think that overall, I would have liked a chance to prepare more for tutoring so I would know what to think about while I was talking to the students. ",5,"I somewhat knew what to expect because of the video, but not completely. ",I think it is a good chance to see what your habits are when it comes to talking to students and how to improve. ,No. 
"Phillips, Delayne",AE1016,21-02-2013 17:00,21-02-2013 17:03,1,,,,,,,,1,6,2,7,7,7,5,7,7,It made me more comfortable with second life before our first tutoring session. ,,5,7,6,"I am comfortable tutoring because I have tutored and taught in classrooms in the past. However, I am still not 100% comfortable teaching via second life. ",7,It was what I expected but a little hard to explain it to someone who I couldn't physically see. ,The student was very cooperative ,More time to explain. 
"Reyes, Mehgan",AE1017,21-02-2013 17:02,21-02-2013 17:08,,,1,,,,,,2,7,1,7,5,7,7,7,7,I liked that I was able to get know the students before I had to tutor them.,"No, I liked it.",7,7,5,I feel like I have a lot to learn in explaining to the student how to solve the problem. I will look forward to working with the avatar again so I am able to improve. ,7,I liked how I was able to work with the same student and talk through the problem. ,It showed me what I needed to improve on.,I would change how I explained some of the problem to the student. I would not change the set up of the exercise.
"Roberson, Kealy",AE1018,21-02-2013 17:01,21-02-2013 17:09,1,,,,,,,,2,8,1,6,5,6,4,8,10,I liked that each student was different and that they had a board up with their interests so I knew what to ask about when the conversation went silent.  ,I wish we had more time and met more students and that we were given a bit more information about the students so I knew more about what kind of questions to ask. ,3,7,7,I was nervous going in and it helped that I had met my student before so I knew that she was going to flip back and forth between spanish and english. I didn't know what kind of questions she could possibly throw at me though so I was nervous for that. ,6,i was expecting it be a lot more awkward and that i wasn't going to know what to do or say so that is why I did not put that it completely met my expectations because it was a lot easier than I thought. ,The student asked a lot of questions and I was able to answer a variety of things. ,I would change some of my explanation and I wish I knew who my student was before the tutoring so I could look back on their file and see what I could use to relate to them. 
"Sharpless, Sarah",AE1019,21-02-2013 17:04,21-02-2013 17:08,1,,,,,,,,2,5,2,7,5,7,6,6,7,No.,No.,7,7,5,I felt a little flustered and nervous and sometimes my mind got off track since it's not exactly one on one in person with the student.,6,I was nervous and so didn't feel as if I did as well as I could have.,"I thought it was good that the ""students"" asked questions.",No.
"Youman, Jessica",AE1020,21-02-2013 17:04,21-02-2013 17:07,1,,,,,,,,1,4,1,7,8,9,3,8,4,to learn how to use the program in general,we didnt have enough time ,3,7,5,it was hard to draw things and help them visualize,7,yes from what we heard they were good just not enough time ,i got to see how it will be like in the classroom,having more time and be able to draw or manipulate 
"Hajiebrahimi, Shayda",AE1021,21-02-2013 17:04,21-02-2013 17:08,1,,,,,,,,3,8,2,5,6,8,4,9,9,,,4,10,8,,7,I didn't finish my explanation with my student. I felt it took longer then the time given.,It was helpful because it gave us time to see how it is to work with a student one on one.,Just give a longer time for students to explain to students.
"Traverse, Aubrey",AE1022,21-02-2013 17:02,21-02-2013 17:06,1,,,,,,,,1,2,1,7,5,3,1,3,5,,,1,4,5,,3,I did not have enough time. And this class is extremely disorganized. ,It made the student think through the problem,Give me more time and id rather be one on one. I just honestly dont really like it but thats a personal preference. 
"Abalos, Katie Elaine",AF1001,15-10-2013 14:25,15-10-2013 15:28,1,,1,,,,,,2,7,2,8,8,9,6,7,7,"In a real classroom, you have a more personal connection face-to-face. With the ""Get to Know Your Student"" exercise, this let you know the student as if it was in a real classroom. It gave a more personal feel. ",,7,8,8,"I like second life, I feel fairly confident. I know the more we practice and use second life, the more confident I will become. ",7,"I learned how to approach tutoring, in life and online. It was good practice. ","You will have students come after class or before class for one-on-one tutoring, so it was good practice.","Let the student explain the problem and their reasoning more, rather than me just explaining things to him/her all the time. "
"Albus, Emily Kathryn",AF1002,15-10-2013 15:21,15-10-2013 15:27,1,,,,,,,,1,8,1,7,5,6,7,5,6,It helped break the ice for when we have to come back to tutor/teach the student. ,It was kind of awkward because we did not really know what to talk about. Maybe have some prompting questions for us to refer to if we get stuck.,5,5,5,I did not get to tutor because I was sick. ,5,I did not get to tutor because I was sick that day.,I did not get to tutor because I was sick.,"Even though I did not tutor because I was sick, some of the people that did tutor said that it would be better if there was a board that they could write on to show the students the work."
"Bostick, Mackenzie Shea",AF1004,15-10-2013 14:25,15-10-2013 14:31,1,,,,,,,,1,6,1,7,5,6,5,5,7,,I would have rather gotten to know my student alone instead of with a partner.  My partner sort of took over and I didn't a chance to talk.  ,4,5,0,I would rather tutor in person than have to figure out how to do things in second life.  ,5,,"It was interesting, but awkward because I knew I was working with graduate students instead of real middle grades students. ",no
"Brown, Katelyn Michelle",AF1005,15-10-2013 15:22,15-10-2013 15:28,1,,,,,,,,1,4,1,7,7,5,6,5,6,It was good getting used to Second Life and using the headphones.,Give more time or more information to talk about with the student.,7,6,6,I observed so I did not get to tutor but while I was watching I thought that it could be something I could do.,5,I felt like we were rushed and that the student did not really need our help.,It gave us practice and experience in talking out how to do math problems.,"I would change how we could explain the problem to the student, like if we had a way to write and show them what we were talking about instead of just trying to say it over the computer."
"Clyde, Callie Jo",AF1007,15-10-2013 14:25,15-10-2013 15:29,1,,,,,,,,1,7,1,7,5,5,6,7,9,It was good to meet the student and know more of what to expect when we begin to tutor.,,3,6,3,It was very difficult to only be able to use explanations by words rather than being able to write down the problem and see what the student was doing. ,5,I had no idea what to expect when tutoring through Second Life so there were no expectations for it to meet. ,Gives you experience in tutoring and shows how difficult the students' misconceptions and questions are going to be to explain.,Have a way to be able to see what the student is writing down and be able to write things down so that you can know they fully understand what you are meaning.
"English, Mary Abigayle",AF1008,15-10-2013 14:22,15-10-2013 15:02,1,,,,,,,,2,8,1,9,8,8,3,3,3,Good way to get familiar with the technology,Give us set questions to ask them to get to know them,7,7,6,"I now feel comfortable tutoring middle grade students, but I wish we were given more preparation on the type of problem we would be working with. ",7,I enjoyed answering the questions from Rosie and it felt realistic. I was just hoping that we could have had more time or been able to write while we talked. ,It gave you hands on experience and the people asking you questions were realistic and asked good questions.,"Explain more which problem we would be working on. We were all really confused and its hard to start tutoring someone on a problem we just read. Also let us know before hand if we need to have prepared more, what we could have done over the weekend to plan. "
"Escobedo, Stephanie",AF1009,15-10-2013 15:22,15-10-2013 15:34,,,1,,,,,,1,7,1,10,5,5,3,5,10,"What I thought about about the ""get you know your student"" exercise, is that it was a good way to learn in which ways you could relate to the student. which in the future it may help you make better culturally relevant exercises for you student.","In my opinion, the one thing that could improve is the time limit... there definitely need to be more time given for this assignment.",3,10,7,"I cant really answer these questions because i was an observer, but if I were to put myself in the tutor's shoes that is how I would feel.",5,I didn't  really have an expectation but the time limit is what completely ruined the experience. ,"what was good about it, is that we were able to get some kind of tutoring experience, and finding out our strong and weak parts. ",The 2 things that I would change is adding more time to the tutoring session and being able to use a writing utensil to be able to get your messages fully across. (visibly)
"Fordyce, Linsey Lee",AF1012,15-10-2013 14:26,15-10-2013 14:42,1,,,,,,,,2,2,3,6,5,6,6,6,6,,,3,5,4,I was hard not to show the student how to do the question with pencil and paper.,5,I wasnt expecting to have that amount of time. It was hard to tutor the student in that short of time.,It was really helpful that I could see her work and talk to her one on one.,I would change the amount of time we get to work with the student.
"Gandy, Victoria Marie",AF1013,15-10-2013 13:47,15-10-2013 13:55,1,,,,,,,,2,8,1,5,5,6,1,7,10,It was nice to have the student explain what they needed to work on instead of just reading it in the background reports. ,"I felt that we were rushed in trying to get set up for the ""Get to Know Your Student"" exercise. ",7,10,4,"Since I was not supposed to tutor, I didn't feel prepared and was wondering if I was supposed to tutor or not. ",5,Wasn't expecting to tutor so I had no expectations of the session. ,It was helpful to be able to look back on the tutoring session to see what I could do better at and some things that I did right. ,Maybe more time would be helpful. 
"Hardig, Elizabeth Dean",AF1014,15-10-2013 14:27,15-10-2013 15:28,1,,,,,,,,3,8,1,7,6,9,5,5,10,I like that we were given an opportunity to meet a student and learn a little about them.,I would have liked to meet all three students because the student I met in Get to Know Your Student was not the student that I tutored. I would have liked to be familiar with the student that i tutored before the tutoring session.,7,9,8,"I have tutored students before while I was in high school, so I was very comfortable in the tutoring session.",7,I felt as if I did well but by watching my performance I was able to depict things that I can work on.,It enables you to have more experience with one on one tutoring in a virtual world before you are in the classroom.,"I would not change anything, I feel as if it is a very helpful exercise."
"Hutchison, Rebekah Kylie",AF1015,15-10-2013 14:27,15-10-2013 15:29,1,,,,,,,,2,5,1,9,9,9,9,9,10,I loved being able to know to get to know my students during this time. I feel like it was very helpful because I believe it is so important to develop relationships with your student first. It was nice to already know my student before this first tutoring session.,There is nothing I can really think of to improve it!,9,10,8,"At first I was a little nervous just because it was online and not face to face, but my student was very receptive and by the end I found myself greatly enjoying it. ",9,"It did meet my expectations because like I thought, I ws nervous, but once I got in the groove things flowed and showed me areas to work on, and also explanations that do or do not make sense. It was very good practice.","I thought the whole experience of it was good because it showed me things I need to work on, and other things that are important to the tutoring or teaching environment. Things like being prepared, working step by step, and having the student explain their reasoning and moves were shown to me as being very crucial to the tutoring process.",There is nothing I can really think of changing! It was great!
"Jackson, Taylor Denise",AF1016,15-10-2013 15:25,15-10-2013 15:34,1,,,,,,,,2,8,1,9,9,8,9,8,9,It was good for the student to meet who he would be interacting with.,We did not have much time to meet the student and understand their abilities in the classroom. We only discussed things he liked and did not like.,9,7,7,We are not given resources where we can allow the student what we write down when trying to teach. Math is a very visual subject so just trying to explain can come across as making it more difficult.,8,I was an observer but I do believe that we knew what to plan for. We got to see an example beforehand so we knew what to look forward to and the time we had.,It helped us learn how to explain math without being able to see the steps the teachers write down. It causes the student to have to comprehend math language and caused them to ask questions to gain a deeper meaning of all of the information we tried to portray to them.,I would give the tutors an opportunity to be able to write down steps for the student so they are able to ask questions also based on steps and not just trying to understand how we say these steps. 
"Koci, Allicyn Lynn",AF1017,15-10-2013 15:22,15-10-2013 15:28,1,,,,,,,,2,9,1,9,9,8,9,8,9,I got to know a little about a few of the students and it was helpful for the tutoring.,I didn't believe the students I met talked enough. I did most of the talking and the answers they gave were very short and made it difficult to continue the conversation. ,6,8,9,My student was very nice and tried to understand what I was saying. It seemed like he was listening and trying to learn from me.,9,I was pretty prepared for the tutoring because we had discussed it several times in class before completing it.,I thought it was good to gain experience tutoring because I had never done it before and it let me see what it was going to be like.,"I would have liked to have something to write on to show the student what I was doing. Math is more working something out, not just listening and understanding. A board or something would have been helpful."
"Kuch, Lindsey Beth",AF1018,15-10-2013 15:22,15-10-2013 15:30,1,,,,,,,,1,2,1,5,5,5,6,6,10,"It was nice getting to use Second Life prior to having to tutor or teach, because it allowed me to get a little more familiar with the program.","I think the ""Getting to Know Your Student"" excercise was sufficient for its purpose.",3,6,3,"I did not actually tutor, but I just thought the exercise was a little stressful. Not being able to see what the student wrote was frustrating, and not being able to write anything my student could see made the explanation difficult.",5,"I did not really know what to expect for this exercise. It did not go horribly, but with more practice I think it could have gone much better.",I think getting a little bit of experience tutoring a student was helpful.,"If I could change anything, I would have my student be able to see what I was writing."
"Matteo, Cynthia Louise",AF1019,15-10-2013 14:26,15-10-2013 15:28,1,,,,,,,,4,4,1,5,7,5,7,7,8,,,4,7,7,I feel like my tutoring was very effective in helping the student's understanding. I enjoy tutoring and helping students finally understand something correctly.,6,"I didn't really know what all to expect out of the tutoring session. Everything I was told was what happened, but I just wasn't told everything that happened.","I think that it is an important thing to be able to tutor students individually before teaching an entire classroom. If you can't help one student effectively, you can't help 20 effectively.","I would give more time for the tutoring exercise. I didn't get to finish helping with the entire problem within that ten minutes, so I feel like the student only got part of the understanding and wouldn't be able to apply much to similar problems later."
"McGowen, Nell Caplis",AF1020,15-10-2013 15:21,15-10-2013 15:28,1,,,,,,,,2,3,1,6,5,4,2,4,4,,,6,5,3,It is uncomfortable and awkward and I feel like there is a better way to teach and get points across other than trying to teach someone in second life.,6,The tutoring happened the way I though it was going to.,I thought that it was good that the tutor was able to fix the students problem and the student understood after it was over how to correctly do the problem that they were having trouble with.,"No, I think the problem solving tutoring went fine, I just might change that it is done in second life. I think it would be more beneficial to go to an actual school and help a child there."
"McKenzie, Kendyl Claire",AF1021,15-10-2013 15:23,15-10-2013 15:32,1,,,,,,,,2,7,2,4,5,6,5,6,8,I just liked being able to know more about my student.,I'd like to know more about there math background and different learning abilities so I can utilize that in order to effectively teach them.,1,3,3,"Honestly, I would rather have an actual student to tutor rather than a grad student acting the part of a middle grade student. I like the one on one action with a student to SHOW them the material I am tutoring them over.",6,"The tutoring session met my expectations. I am not a fan of online tutoring, but it was what I thought it would be.","It was nice to be one on one with an avatar, but the other voices and lagging in the classroom was distracting.",I would have prepped a little more for the learning style of the student if I were aware of their learning style prior.
"Menking, Mary Elizabeth",AF1022,15-10-2013 15:21,15-10-2013 15:30,1,,,,,,,,1,5,1,5,2,3,1,1,7,I liked how the students went ahead and talked about themselves with little prompting. It allowed me to see who they were and what they were struggling with.,"There needs to be more time to get to know them. Due to technology issues, I heard only a few things said by my student.",1,6,1,It's so hard to tutor someone without being able to show them what you are doing or what they need to be doing. So much of helping students to understand is through visuals. Not being able to write down equations and pictures for my student to see really hindered my success and made me feel inadequate and insecure.,7,"Because we had the opportunity to view a previous year tutoring session, I felt that I had the right idea.",It was a great problem that showed the common misconception of adding like terms. This helped me to see exactly what I will encounter in the classroom.,"I would make sure to get my student to explain more instead of guiding her as much as I did. If allowed, I would use a typing board to show the student the equations and pictures to help her visualize the problem and steps better."
"Osegueda, Karina",AF1023,15-10-2013 14:27,15-10-2013 15:31,,,1,,,,,,2,8,1,8,7,8,8,8,8,"In the ""Getting to know Your Student"" exercise I felt that I got to know in what materials the student felt confident in and in what the student struggled in.",No I felt that i had enough time to explain to the Student and communicate with the student. ,8,8,7,I felt that that the tutor was confident enough and she handled the students question in a right way which helped the student understand the problem better. ,7,i felt confident.,That the student and teacher interacted in a good way.,"Yes, I feel that it would be better to find a better and a more active response to the student. I feel that if the student has a more engaging answer then the student will understand better."
"Porter, Maury Elaine",AF1024,15-10-2013 15:21,15-10-2013 15:29,1,,,,,,,,3,8,1,6,6,7,7,7,7,Not that I can think of.,Maybe ask more questoins to really get to know my student instead of just asking the basic general questions.,6,7,7,none,7,"Nothing surprised me really about tutoring, but the one thing that I was struggling with was looking at the board and my student at the same time and see if they had any questoins and such.",It showed me where I need to improve in my teaching skills and explaning things verbally without being able to draw it out for them to see.,Not that I can think of.
"Rodriguez, Jasmine L",AF1026,15-10-2013 15:22,15-10-2013 15:30,,,1,,,,,,2,10,1,5,5,6,6,6,6,"It was easy to talk to the students. However, I didn't understand how the student profiles on ecampus were supposed to assist us in getting to know our students",I would like to improve being able to approach someone over second life. It is weird and makes me feel uncomfortable that the student had to approach me because I didn't know when they could hear me or if they were logged into second life.,4,5,5,"I liked tutoring the student, but it is difficult to do so when I can not really interact with the student face to face. it is especially hard to give relevant examples that are simpler and easier for the students to solve when they can't see the problems or pictures that I am trying to write out for them.",5,No. I don't think I liked the tutoring session all that much. Like I said in my above comment. It is hard to tutor someone over the computer especially with no interaction. Skype would be easier to use.,not really. I didn't like it. I even had difficulty seeing my students problem and so some of my tutoring time was spent trying to figure out how to see the student's problem,I would like to see if I could use something to help my student's see my examples and explanations. 
"Sheldon, Frances Renee",AF1027,15-10-2013 15:21,15-10-2013 15:27,1,,,,,,,,4,8,1,8,7,8,7,4,3,"It's been a while since doing this exercise, so I don't really remember it. I know that it was entertaining to get to know the students but it didn't help me with preparing myself for the tutoring sesion.","I would probably include more time in getting to know the student, so give us some ideas of what to talk about. ",6,8,8,"I really wasn't the tutor but I did have a lot of input and added a few things, and I felt like I was more comfortable than my partner was.",7,,"It was good to ""get your feet wet"" with the program and with tutoring in general. I felt like it would have been beneficial for all students to partake in the tutoring session so that when it came time to teaching, they could have experience with it.",I would have been the tutorer.
"Smith, Nolan Michael",AF1029,15-10-2013 15:22,15-10-2013 15:31,1,,,,,,,,5,8,2,9,10,8,10,0,8,No. It was a waste of time.,Remove it completely. There were already student bios online. These bios were sufficient for me by themselves (without a getting to know your student exercise).,3,9,5,I felt like the time limit was a big factor in putting me under alot of pressure to perform as quickly as possible (instead of being as helpful as possible to the student).,7,I expected tutoring would be about like it was.,It was good to have an eperience tutoring. ,"I would have let my student talk more, so that she could have made explainations instead of me. I was very worried about not finishing, so I simply explained everything for her."
"Tschantz, Taylor Alexandra",AF1030,15-10-2013 15:21,15-10-2013 15:25,1,,,,,,,,1,10,2,7,7,7,10,8,10,,,7,8,7,I felt very comfortable in tutoring the middle grade student. ,8,,I thought it went good,No
"Walz, Katherine Anne",AF1031,15-10-2013 14:22,15-10-2013 14:26,1,,,,,,,,4,10,2,9,9,9,9,9,9,"No, I didn't find it necessary.",Wouldn't waste time on it. Send us into a real classroom.,10,10,8,Sometimes you can't take talking to an animated character seriously.,9,It was the problem she told us.,Good practice for future.,Real tutoring and not this fake stuff.
"Wood, Jessica Lauren",AF1032,15-10-2013 14:26,15-10-2013 14:38,1,,,,,,,,1,8,2,8,8,6,5,5,5,,"I think it would have been beter if we had a problem to go over during the get to know your student exercise. It kind of got awkward after a while becuase we didn't know what to talk about. If we could see a problem that the student missed, it would help us to know what the student is struggling with and give us something to talk about.",8,8,7,"I am a nanny so part of my job is helping my kids with homework, so I am used to tutoring students, so I was comfortable working with the student.",8,"I thought the tutoring would go how it did, so it met my expectations.",I like tutoring students,"I like tutoring students, but I will always prefer tutoring students in person."
"Young, Brooke Christine",AF1033,15-10-2013 15:22,15-10-2013 15:27,1,,,,,,,,3,8,1,6,6,6,3,4,4,,"I wish I had more time, 5 minutes wasn't enough. ",7,7,6,I was comfortable talking with the student but wasn't able to prepare myself enough for the session so I had a lot of pressure on me. ,5,"I felt rushed as I started tutoring and wish I had time to prepare and practice with the problem before I stepped into the room. Also, the teacher kept talking to us during our session and I had many interruptions. ",I liked being able to practice thinking on my feet and I felt it was a good and necessary experience for my success as a teacher. ,I would like to have something to write on that the student can see because I am a visual learner. 
"Austin, Amanda",AF1034,15-10-2013 15:22,15-10-2013 15:31,1,,,,,,,,2,8,1,5,6,6,1,4,10,"I think that this activity was a good introduction to interacting with other profiles on second life. While the first day of creating our avatars on second life was useful in knowing how to navigate, it is different than actually conversing over second life.",I would give a little more time to meet students in case there are technical difficulties. My partner did not get to interact with our student at all due to persisting technical difficulties.,3,5,6,I was not the tutor but only observed so I am just guessing how I would have felt if I had actually been tutoring.,6,"While I wasn't completely sure what to expect given that we hadn't decided who was tutoring until we were about to tutor, overall it met the few expectations that I had. ",I think that being able to look at the problem on the whiteboard was very helpful in that it gave tutors something to consistently be looking back to.,I would give students an opportunity in class to decide in pairs who would be tutoring the week before this assignment so that when students arrive to class they would already know their role in this assignment. I would also incorporate some way that tutors could write out what they were doing durring this assignment so that students can see what the tutor is writing.
"Atherton, Kellie Anne",AG1001,06-03-2014 15:49,06-03-2014 15:54,1,,,,,,,,3,8,1,10,10,10,10,10,10,,,10,10,7,It is a little awkward at times talking to someone I am not face to face with.,10,,I think it was good to teach a problem and see if what i was teaching the student was able to grasp.,No I would not I think that everything went well.
"Barnett, Brittany Eileen",AG1002,06-03-2014 16:01,06-03-2014 16:05,1,,,,,,,,3,9,1,9,9,9,7,9,8,"yes, you get to have an experience of teaching.",being ableto communicate more,6,9,9,i felt pretty good,9,she understood what i was saying,i got a one on one meet,being able to write
"Bimmerle, Kathryn Rose",AG1003,06-03-2014 15:50,06-03-2014 16:00,1,,,,,,,,4,9,1,10,9,10,7,8,10,"It was easy to converse with my student, and I enjoyed getting to know her. ",We did not have the ten minutes we were told we were going to have. ,8,10,8,It would be helpful to be able to point at the picture. ,8,"I was nervous coming in that I was not going to be able to answer the student's questions, but I was able to. ",I liked having  the problem on the board in front of us. ,Maybe give us a little more time. 
"Bishop, Taylor Marie",AG1004,06-03-2014 15:51,06-03-2014 16:01,1,,,,,,,,4,10,1,10,7,6,10,1,1,I did not get to meet with my student. I was switch to meet with Angelina. Meet the middle grade student was not helpful to me besides getting to interact with an international student,,3,10,4,I feel that I do not have enough instruction on how to actually remove a misconception. We have talked about it a lot but I don't feel that I have had instruction on how to remove the misconception. We only have talked about what not to do and other information about misconceptions,6,Gallen asked questions that i was not prepared to answer. Ex: multiple ways to explain why you can not combine 6W and 3,"it was good experience to get to practice teaching to a ""student"" rather than to the class of college students. Also having them ask questions that a student would ask you. It is preparing us for thinking about questions a student will ask and how to plan accordingly.",No. The exercise was authentic to teaching a student in the classroom.
"Brown, Kelsey Liane",AG1005,06-03-2014 16:12,06-03-2014 16:17,1,,,,,,,,3,10,2,7,7,7,10,5,6,"It was good to meet the middle grade student before having to tutor them in order to be acquainted with them, and thus feel more comfortable once the tutoring started.",No,10,7,7,"It was a little rough start getting used to it, especially since this was a different person than I met before, but then everything went smoothly.",9,"I was able to explain what I had planned on and have it work, and the student asked questions that I had planned on.",One on one tutoring is always good for students to better understand something they are missing.,No
"Caldwell, Hannah Robin",AG1006,06-03-2014 16:14,06-03-2014 16:19,1,,,,,,,,3,7,1,7,7,7,7,7,7,I thought it went well and it challenged me.,I think I just to improve myself my practicing and preparing more for the questions I wasn't really prepared for that she asked.,7,7,7,I thought this was kind of interesting and a somewhat good practice for it.,7,"I thought it went really well. I should have prepared a little more, but it went well.",I think I was able to explain it well even though I couldn't point out their problem or walk them through it on paper.,I think it would be easier if I could show them what I'm talking about instead of just saying it. Or if I could draw and show them steps.
"Degrazia, Alycia Lauren",AG1008,06-03-2014 16:16,06-03-2014 16:22,1,,,,,,,,4,10,2,10,8,5,5,8,6,We had background information on the students so we were able to find out more personal information about them during the session.,More time.,10,7,8,I had already planned how to help this student so it was easier. I think if I was approached by a student in real life I wouldn't be able to plan it and it may be more difficult. ,9,I figured it would be like that. ,Good time.,I wish I had known that I needed more than one example to help the student. I thought my example was a good one but she needed more than that. So I had to come up with examples on the spot.
"Forney, Virginia Lee",AG1009,06-03-2014 16:23,06-03-2014 16:30,1,,,,,,,,1,7,1,7,7,7,7,7,7,Yes it allowed me to learn more detailed information about my student.,None,10,7,7,I was comfortable with them.,7,Yes,It was personal,I wish the student could see my work.
"Guevara, Lissette",AG1010,06-05-2014 11:45,06-05-2014 11:59,,,1,,,,,,1,3,1,7,5,4,3,3,7,"I liked the whole ""meet the middle grade student"" deal, but I think it would have been better if they were actual middle grade students. ","I would get actual 7th graders, and see if they actually learn something from the experience and my class.",4,5,5,"I felt nervous, being that they weren't actual 7th graders, and because I do not expect to teach 7th-12th grades. ",6,"It did, but it didn't. Wished it would have been one on one, like face chat or something like that. So that way I could show the students myself by writing and showing them. ","Over all the tutor session went ok, I got to experience something different and learned from it. ",I would be more prepared in knowing how to go about things. 
"Jackson, Chandler Paige",AG1011,06-03-2014 14:31,06-03-2014 16:53,1,,,,,,,,2,7,1,9,7,8,7,8,8,"I liked it because it served it's purpose well as a mere introduction into what we are going to be using second life for, and getting a feel for the experience.",I don't think there is anything i would have changed.,7,9,6,"I felt comfortable, however, it is a little odd knowing that the person on the other side is an actor. Overall though, it was really cool to be exercising what I have learned in a genuine way, and learning to think a little more on my feet.",7,"We solved the problem, and there were also other minor ""problems"" within the central perimeter problem that modeled what a conversation would be like with an actual student.","The actors, and the way they model the thought processes of real middle school aged students is really helpful in getting experience that is realistic.","If I could change one thing, I would also include the goal to assess the student in some (minor) way to determine whether they had gotten the problem, based off of their ability to work through a similar one. "
"Moore, Taylor Raye",AG1012,06-05-2014 13:35,06-05-2014 13:37,1,,,,,,,,1,7,1,3,5,4,5,5,5,I thought it was good to know who we were teaching. ,I think it was kind of uncomfortable and next time we should use a real classroom.,5,5,6,"I don't want to tutor or teach middle grade students, but I know I could. ",5,I didn't really have any expectations for the session. ,I like that it taught me more about misconceptions.,"Yes, I would know the setting. I think it's important that we know if the students are from and urban or rural area. "
"Newbern, Chelsie Morgan",AG1013,06-05-2014 14:03,06-05-2014 14:07,1,,,,,,,,1,9,1,10,7,9,9,8,10,"Yes, it helped me have a real-life experience without actually having one. I didn't feel the pressure of an actual real student. ",no. ,10,10,9,"I felt really nervous at first, but when it was over I was glad that I had the opportunity to tutor. I learned a lot by just having that experience and getting to watch what I actually did. ",10,Yes. I was able to experience was it was really like. ,The 3-D program in general made it fun and exciting experience. ,no.
"Nguyen, Jennifer Lien",AG1014,06-03-2014 16:29,06-03-2014 16:50,,,,1,,,,,1,10,1,5,7,5,3,3,8,It was good to know some background information with the student. It could help to learn what the student is interested in/likes so that the tutor can come up with examples that would engage the student.,More time.,1,6,4,It was hard that I wasn't able to point out and see what they are doing. ,3,"I had a plan written out, but I feel that I wasn't able to clearly explain my methods. ",It allowed me to have hands on experiences with the student and kind of feel what it was like to teach. ,More time so I could more clearly explain and make sure that the student understood. 
"Peeks, Bonni Jo",AG1016,06-03-2014 15:58,06-03-2014 16:02,1,,,,,,,,2,10,1,10,7,2,5,5,5,It gives us a little bit more experience. ,Not really,5,5,3,I have always had a hard time talking in front of my peers. Even those these grad students are pretending to be 7th graders. Plus I like to have eye contact and through Second Life I can't have that. ,5,,It gave us a little bit more experience. ,I would have added more time. 
"Pendel-Woolsey, Michelle Lynn",AG1017,06-05-2014 10:14,06-05-2014 10:18,1,,,,,,,,1,10,2,6,10,8,3,8,7,No,No,4,8,7,I thought it went well,8,It helped my get comfortable with talking to the avatar students and teaching them,I thought it all went well,No
"Renteria, Jourdain Bryce",AG1018,06-03-2014 16:07,06-03-2014 16:11,1,,1,,,,,,4,8,1,10,8,8,5,2,9,It was interesting to talk to a student online and work with them on a misconception.,Extend the time a little bit. Everything else was good.,6,9,7,It's a little weird talking to somebody just online but other than that it was comfortable.,6,It went a little rougher than I imagined it would.,Communicating with a student. ,Just a longer time limit would be good.
"Roach, Lindsie Mae",AG1019,06-03-2014 16:09,06-03-2014 16:17,1,,,,1,,,,5,10,4,10,10,10,4,7,10,I loved that I was given the chance to review and analyze the student's homework and their misconception in order to form an outline on how to address their misconception. ,"The only thing that I think that would improve the ""Meet the Middle Grade Student"" exercise would be to allow more time for the student-teacher interaction. ",6,9,8,"Due to the difference in face to face interactions and avatar to avatar interaction, I was not able to properly engage the student during the exercise. This cause me to ramble a little and next time I need to be sure to engage the student.",10,I had lots of fun and loved the exercise!,I thought it was a great way to gain experience with working one on one with a student and answering questions. ,I would focus more on engaging the student and not throwing information at them in such a short time.
"Romero, Reagan Alese",AG1020,06-03-2014 16:04,06-03-2014 16:10,1,,1,,,,,,1,4,1,8,5,7,10,10,8,,,9,8,5,I feel fairly comfortable tutoring the avatar in Second Life because it's actually kind of fun. The only reason it was slightly uncomfortable to me was because I am not a big fan of technology. I don't like not being able to see the students and write things down or draw pictures for them to see to aid with my explanation.,7,Yes,"I thought it was very helpful. I have no experience teaching students and I think that this exercise is a great way to practice before I go into an actual classroom. It's better to find out now, rather than later, if I am a good teacher.",No
"Shaughnessy, George James",AG1022,06-03-2014 13:42,06-03-2014 16:46,1,,,,,,,,3,9,2,10,9,6,5,1,8,"Communicating through second life is pretty awkward at first, so it was good to have an opportunity to get used to the medium before having to teach with it. ",To me it accomplished the purpose of the exercise.,10,7,7,When I'm teaching a student in real life I always use pictures and visuals and hand gestures so it was difficult to use only my voice. ,7,I expected it to be awkward and feel unnatural and that's how it felt when I was tutuoring. ,I thought it was good that it brought awareness to the importance of visuals when teaching. ,nope.
"Smith, Laura Ann",AG1023,06-03-2014 17:05,06-03-2014 17:10,1,,,,,,,,2,5,1,8,5,5,3,4,5,You got used to using the headset and talking to the students. This made it a little more comfortable for the tutoring session.,Nothing,4,5,7,It was a little hard bev=cause you could not use a visual. Sometimes I could not tell what the student was talking about so it left me unable to move forward with the problem. This made things a little uncomfortable at times.,7,The only thing I did not take into account was the fact that I could not visualy show what I was saying. ,It made you selct your words more carefully and it made you really think about how descriptive you can be with a math problem. I think this could be great for later use in the classroom. ,It would be nice to have been an option or way of showing something visually to the students. 
"Wilson, Baylie Elyse",AG1025,06-03-2014 15:35,06-03-2014 15:41,1,,,,,,,,2,10,1,10,10,6,10,4,9,,,6,9,10,,9,It seems like a real tutoring session,I really like it because we are putting our selves in a teachers shoes,I really wish we were tutoring in person
"Patel, Krishma A.",AG1026,06-03-2014 18:03,06-03-2014 18:07,,,,1,,,,,2,8,1,8,5,8,7,9,9,I like how we had the opportunity to prepare ahead of time. I was ready for the student's questions and was confident in my methods.,I wish that we could write while we are speaking to the student. It would help make things clear on both ends.,7,9,8,"It was a little awkward because I was unable to write anything down, but I believe that I was still effective.",9,I enjoyed the interaction with the student because the student was very clear about what she did not understand and asked questions.,I thought it was good that the student interacted with us. It was not just us talking or asking questions. The student answered and was actively engaged.,I wish that I would have had a little more time to go through some more examples.
